<svg xmlns="http://www.w3.org/2000/svg" id="_001-home" width="18.628" height="18.259" data-name="001-home" viewBox="0 0 18.628 18.259">
    <defs>
        <style>
            .cls-1{fill:#fff}
        </style>
    </defs>
    <g id="Group_34" data-name="Group 34">
        <path id="Path_76" d="M18.41 11.374l-8.676-7.6a.638.638 0 0 0-.841 0l-8.676 7.6a.638.638 0 1 0 .841.96l.672-.589v9.488a.638.638 0 0 0 .638.638h13.891a.638.638 0 0 0 .638-.638v-9.489l.672.589a.638.638 0 0 0 .841-.96zM7.84 20.595v-5.256h2.946v5.255zm7.781-9.964v9.964h-3.559V14.7a.638.638 0 0 0-.638-.638H7.2a.638.638 0 0 0-.638.638v5.893H3.006v-9.962L9.313 5.1l6.308 5.529v.002z" class="cls-1" data-name="Path 76" transform="translate(.001 -3.611)"/>
        <path id="Path_77" d="M154.5 108.876a.638.638 0 0 0 .638.638h1.582a.638.638 0 0 0 0-1.276h-1.582a.638.638 0 0 0-.638.638z" class="cls-1" data-name="Path 77" transform="translate(-146.615 -102.898)"/>
    </g>
</svg>
