<svg xmlns="http://www.w3.org/2000/svg" width="18.358" height="18.358" viewBox="0 0 18.358 18.358">
    <defs>
        <style>
            .cls-1{fill:#fff}
        </style>
    </defs>
    <g id="login">
        <g id="Group_86" data-name="Group 86">
            <g id="Group_85" data-name="Group 85">
                <path id="Path_111" d="M4.715 16.924H2.176a.729.729 0 0 1-.574-.273.749.749 0 0 1-.152-.628A7.923 7.923 0 0 1 9 9.749h.367a7.854 7.854 0 0 1 2.59.5.717.717 0 0 0 .5-1.343q-.178-.067-.358-.126a4.876 4.876 0 1 0-5.837 0 9.325 9.325 0 0 0-6.215 6.951 2.179 2.179 0 0 0 2.13 2.627h2.538a.717.717 0 0 0 0-1.434zM5.737 4.876a3.442 3.442 0 1 1 3.61 3.438h-.336a3.446 3.446 0 0 1-3.274-3.438z" class="cls-1" data-name="Path 111"/>
                <path id="Path_112" d="M158.574 314.133A1.932 1.932 0 0 0 156.81 313h-2.241a1.9 1.9 0 0 0-1.794 1.212c-.038.1-.084.221-.132.365h-4.7a.717.717 0 0 0-.515.218l-1.232 1.269a.717.717 0 0 0 0 1l1.255 1.277a.717.717 0 0 0 .511.214h2.338a.717.717 0 1 0 0-1.434h-2.03l-.553-.563.533-.549h4.93a.717.717 0 0 0 .7-.547 5.93 5.93 0 0 1 .236-.738.47.47 0 0 1 .457-.293h2.238a.489.489 0 0 1 .456.284 4.632 4.632 0 0 1 .424 1.828 4.768 4.768 0 0 1-.421 1.861.49.49 0 0 1-.45.294h-2.265a.51.51 0 0 1-.462-.318 4.768 4.768 0 0 1-.222-.71.717.717 0 1 0-1.395.334 6.17 6.17 0 0 0 .291.923 1.934 1.934 0 0 0 1.787 1.2h2.268a1.923 1.923 0 0 0 1.763-1.155 6.208 6.208 0 0 0 .54-2.437 6.071 6.071 0 0 0-.551-2.402z" class="cls-1" data-name="Path 112" transform="translate(-140.765 -301.777)"/>
                <ellipse id="Ellipse_9" cx=".5" cy="1" class="cls-1" data-name="Ellipse 9" rx=".5" ry="1" transform="translate(14.477 13.881)"/>
            </g>
        </g>
    </g>
</svg>
