{
    "/js/app.js": "/js/app.js",
    "/../../assets/css/app.css": "/../../assets/css/app.css",
    "/C:/Users/Insight Features/Documents/projects/nasta/app-nasta/assets/js/app.js": "/C:/Users/Insight Features/Documents/projects/nasta/app-nasta/assets/js/app.js"
}
